{
  "title": "Example Tour Set",
  "description": "Examples for validation testing",
  "tours": [
    "https://gitlab.com/americanart/tour-json/raw/master/example/tour.json",
    {
      "id": "example-tour-2",
      "metadata": {
        "title": "Second Example Tour",
        "description": "An example tour with the entire tour.json object in the tour set rather than a uri."
      }
    }
  ]
}